…
tracts_df
#> # A tibble: 4,280 × 9
#>    name  sample_age pop   node_id     left    right  length haplotype chrom 
#>    <chr>      <dbl> <chr>   <dbl>    <dbl>    <dbl>   <dbl>     <int> <chr> 
#>  1 EUR_1      50000 EUR         0 19127220 19527944  400724         1 chr1_1
#>  2 EUR_1      50000 EUR         0 50960983 51219943  258960         1 chr1_1
#>  3 EUR_1      50000 EUR         0 54542568 55565589 1023021         1 chr1_1
#>  4 EUR_1      50000 EUR         0 59782108 59938917  156809         1 chr1_1
#>  5 EUR_1      50000 EUR         0 95275454 96092356  816902         1 chr1_1
#>  6 EUR_1      50000 EUR         1   482833   887166  404333         2 chr1_2
#>  7 EUR_1      50000 EUR         1  9178348  9191865   13517         2 chr1_2
#>  8 EUR_1      50000 EUR         1 47755037 48715368  960331         2 chr1_2
#>  9 EUR_1      50000 EUR         1 62276039 62914084  638045         2 chr1_2
#> 10 EUR_1      50000 EUR         1 84342084 84432573   90489         2 chr1_2
#> # ℹ 4,270 more rows
```
…
