…
tracts
#> # A tibble: 706,441 × 6
#>    ID      chrom     start       end length set   
#>    <chr>   <chr>     <dbl>     <dbl>  <dbl> <chr> 
#>  1 HG00096 chr2  230587448 230666898  79450 Modern
#>  2 HG00096 chr10  64618340  64832999 214659 Modern
#>  3 HG00096 chr4   27175143  27250293  75150 Modern
#>  4 HG00096 chr4   10555535  10667610 112075 Modern
#>  5 HG00096 chr4   13699206  13788189  88983 Modern
#>  6 HG00096 chr2  220777562 220862409  84847 Modern
#>  7 HG00096 chr4    5744094   5795412  51318 Modern
#>  8 HG00096 chr10  59975686  60034981  59295 Modern
#>  9 HG00096 chr10  61792790  61851906  59116 Modern
#> 10 HG00096 chr2  227251112 227379627 128515 Modern
#> # ℹ 706,431 more rows
```
…
